<mxfile host="app.diagrams.net" modified="2024-05-03T06:38:11.729Z" agent="Mozilla/5.0 (Windows NT 10.0; Win64; x64) AppleWebKit/537.36 (KHTML, like Gecko) Chrome/124.0.0.0 Safari/537.36" etag="rHfqELPgFxTXL-q0m7aX" version="24.3.1" type="gitlab">
  <diagram name="Page-1" id="2YBvvXClWsGukQMizWep">
    <mxGraphModel dx="1730" dy="1526" grid="1" gridSize="10" guides="0" tooltips="1" connect="0" arrows="1" fold="1" page="1" pageScale="1" pageWidth="850" pageHeight="1100" math="0" shadow="0">
      <root>
        <mxCell id="0" />
        <mxCell id="1" parent="0" />
        <mxCell id="Zt9l11_mfD3S958QhttF-2" value="" style="rounded=0;whiteSpace=wrap;html=1;" vertex="1" parent="1">
          <mxGeometry x="-830" y="-725" width="140" height="60" as="geometry" />
        </mxCell>
        <mxCell id="Zt9l11_mfD3S958QhttF-3" value="&lt;p style=&quot;line-height: normal; margin-top: 0pt; margin-bottom: 0pt; direction: ltr; unicode-bidi: embed; font-size: 11px;&quot;&gt;&lt;span style=&quot;font-size: 11px; font-family: Arial; font-variant-numeric: normal; font-variant-east-asian: normal; font-variant-alternates: normal; font-variant-position: normal;&quot;&gt;&lt;font style=&quot;vertical-align: inherit; font-size: 11px;&quot;&gt;&lt;font style=&quot;vertical-align: inherit; font-size: 11px;&quot;&gt;Evaluación de los recursos informáticos y procesos.&lt;/font&gt;&lt;/font&gt;&lt;/span&gt;&lt;/p&gt;" style="text;html=1;align=center;verticalAlign=middle;whiteSpace=wrap;rounded=0;fontStyle=1;fontSize=11;" vertex="1" parent="1">
          <mxGeometry x="-820" y="-705" width="110" height="30" as="geometry" />
        </mxCell>
        <mxCell id="Zt9l11_mfD3S958QhttF-4" value="" style="rounded=0;whiteSpace=wrap;html=1;" vertex="1" parent="1">
          <mxGeometry x="-795" y="-265" width="140" height="60" as="geometry" />
        </mxCell>
        <mxCell id="Zt9l11_mfD3S958QhttF-5" value="&lt;p style=&quot;line-height: normal; margin-top: 0pt; margin-bottom: 0pt; direction: ltr; unicode-bidi: embed;&quot;&gt;&lt;span style=&quot;font-size: 10pt; font-family: Arial; font-variant-numeric: normal; font-variant-east-asian: normal; font-variant-alternates: normal; font-variant-position: normal;&quot;&gt;&lt;font style=&quot;vertical-align: inherit;&quot;&gt;&lt;font style=&quot;vertical-align: inherit;&quot;&gt;&lt;font style=&quot;vertical-align: inherit;&quot;&gt;&lt;font style=&quot;vertical-align: inherit;&quot;&gt;Objetivo principal&lt;/font&gt;&lt;/font&gt;&lt;/font&gt;&lt;/font&gt;&lt;/span&gt;&lt;/p&gt;" style="text;html=1;align=center;verticalAlign=middle;whiteSpace=wrap;rounded=0;fontStyle=1" vertex="1" parent="1">
          <mxGeometry x="-820" y="-630" width="100" height="30" as="geometry" />
        </mxCell>
        <mxCell id="Zt9l11_mfD3S958QhttF-11" value="" style="rounded=0;whiteSpace=wrap;html=1;" vertex="1" parent="1">
          <mxGeometry x="-830" y="-445" width="140" height="60" as="geometry" />
        </mxCell>
        <mxCell id="Zt9l11_mfD3S958QhttF-12" value="&lt;p style=&quot;line-height: normal; margin-top: 0pt; margin-bottom: 0pt; direction: ltr; unicode-bidi: embed;&quot;&gt;&lt;span style=&quot;font-size: 10pt; font-family: Arial; font-variant-numeric: normal; font-variant-east-asian: normal; font-variant-alternates: normal; font-variant-position: normal;&quot;&gt;&lt;font style=&quot;vertical-align: inherit;&quot;&gt;&lt;font style=&quot;vertical-align: inherit;&quot;&gt;&lt;font style=&quot;vertical-align: inherit;&quot;&gt;&lt;font style=&quot;vertical-align: inherit;&quot;&gt;&lt;font style=&quot;vertical-align: inherit;&quot;&gt;&lt;font style=&quot;vertical-align: inherit;&quot;&gt;Resultados&lt;/font&gt;&lt;/font&gt;&lt;/font&gt;&lt;/font&gt;&lt;/font&gt;&lt;/font&gt;&lt;/span&gt;&lt;/p&gt;" style="text;html=1;align=center;verticalAlign=middle;whiteSpace=wrap;rounded=0;fontStyle=1" vertex="1" parent="1">
          <mxGeometry x="-800" y="-435" width="100" height="30" as="geometry" />
        </mxCell>
        <mxCell id="Zt9l11_mfD3S958QhttF-13" value="" style="rounded=0;whiteSpace=wrap;html=1;" vertex="1" parent="1">
          <mxGeometry x="-670" y="-810" width="190" height="60" as="geometry" />
        </mxCell>
        <mxCell id="Zt9l11_mfD3S958QhttF-14" value="" style="rounded=0;whiteSpace=wrap;html=1;fontStyle=1" vertex="1" parent="1">
          <mxGeometry x="-440" y="-810" width="120" height="60" as="geometry" />
        </mxCell>
        <mxCell id="Zt9l11_mfD3S958QhttF-15" value="&lt;p style=&quot;line-height: normal; margin-top: 0pt; margin-bottom: 0pt; direction: ltr; unicode-bidi: embed;&quot;&gt;&lt;span style=&quot;font-size: 10pt; font-family: Arial; font-variant-numeric: normal; font-variant-east-asian: normal; font-variant-alternates: normal; font-variant-position: normal; font-weight: bold;&quot;&gt;&lt;font style=&quot;vertical-align: inherit;&quot;&gt;&lt;font style=&quot;vertical-align: inherit;&quot;&gt;Vigilancia de los sistemas informáticos, por medio de revisión de auditoría.&lt;/font&gt;&lt;/font&gt;&lt;/span&gt;&lt;/p&gt;" style="text;html=1;align=center;verticalAlign=middle;whiteSpace=wrap;rounded=0;" vertex="1" parent="1">
          <mxGeometry x="-660" y="-795" width="180" height="30" as="geometry" />
        </mxCell>
        <mxCell id="Zt9l11_mfD3S958QhttF-16" value="" style="rounded=0;whiteSpace=wrap;html=1;" vertex="1" parent="1">
          <mxGeometry x="-670" y="-735" width="200" height="70" as="geometry" />
        </mxCell>
        <mxCell id="Zt9l11_mfD3S958QhttF-17" value="" style="rounded=0;whiteSpace=wrap;html=1;" vertex="1" parent="1">
          <mxGeometry x="-670" y="-645" width="200" height="80" as="geometry" />
        </mxCell>
        <mxCell id="Zt9l11_mfD3S958QhttF-18" value="&lt;br style=&quot;font-size: 10px;&quot;&gt;&lt;br style=&quot;font-size: 10px;&quot;&gt;&lt;p style=&quot;line-height: normal; margin-top: 0pt; margin-bottom: 0pt; direction: ltr; unicode-bidi: embed; font-size: 10px;&quot;&gt;&lt;span style=&quot;font-size: 10px; font-family: Arial; font-variant: normal; text-transform: none; font-weight: normal; font-style: normal;&quot;&gt;La auditoría informática también tiene otros propósitos como la&lt;br style=&quot;font-size: 10px;&quot;&gt;detección de acciones no autorizadas&amp;nbsp;&lt;/span&gt;&lt;span style=&quot;font-family: Arial; font-size: 10px; background-color: initial;&quot;&gt;y fraudes.&lt;/span&gt;&lt;/p&gt;&lt;br style=&quot;font-size: 10px;&quot;&gt;&lt;div style=&quot;font-size: 10px;&quot;&gt;&lt;br style=&quot;font-size: 10px;&quot;&gt;&lt;/div&gt;" style="rounded=0;whiteSpace=wrap;html=1;fontSize=10;" vertex="1" parent="1">
          <mxGeometry x="-670" y="-545" width="200" height="70" as="geometry" />
        </mxCell>
        <mxCell id="Zt9l11_mfD3S958QhttF-19" value="" style="rounded=0;whiteSpace=wrap;html=1;" vertex="1" parent="1">
          <mxGeometry x="-670" y="-457.5" width="200" height="95" as="geometry" />
        </mxCell>
        <mxCell id="Zt9l11_mfD3S958QhttF-20" value="&lt;p style=&quot;line-height: normal; margin-top: 0pt; margin-bottom: 0pt; direction: ltr; unicode-bidi: embed; font-size: 11px;&quot;&gt;&lt;span style=&quot;font-family: Arial; font-variant-numeric: normal; font-variant-east-asian: normal; font-variant-alternates: normal; font-variant-position: normal;&quot;&gt;&lt;font style=&quot;vertical-align: inherit; font-size: 11px;&quot;&gt;&lt;font style=&quot;vertical-align: inherit; font-size: 11px;&quot;&gt;&lt;font style=&quot;vertical-align: inherit; font-size: 11px;&quot;&gt;&lt;font style=&quot;vertical-align: inherit; font-size: 11px;&quot;&gt;La auditoría informática es una modalidad de auditoría que consiste en la evaluación de los recursos.&lt;/font&gt;&lt;/font&gt;&lt;/font&gt;&lt;/font&gt;&lt;/span&gt;&lt;/p&gt;&lt;p style=&quot;line-height: normal; margin-top: 0pt; margin-bottom: 0pt; direction: ltr; unicode-bidi: embed; font-size: 11px;&quot;&gt;&lt;span style=&quot;font-family: Arial; font-variant-numeric: normal; font-variant-east-asian: normal; font-variant-alternates: normal; font-variant-position: normal;&quot;&gt;&lt;font style=&quot;vertical-align: inherit; font-size: 11px;&quot;&gt;&lt;font style=&quot;vertical-align: inherit; font-size: 11px;&quot;&gt;&lt;font style=&quot;vertical-align: inherit; font-size: 11px;&quot;&gt;&lt;font style=&quot;vertical-align: inherit; font-size: 11px;&quot;&gt;computadoras y procesos relacionados a estos.&lt;/font&gt;&lt;/font&gt;&lt;/font&gt;&lt;/font&gt;&lt;/span&gt;&lt;/p&gt;" style="text;html=1;align=center;verticalAlign=middle;whiteSpace=wrap;rounded=0;" vertex="1" parent="1">
          <mxGeometry x="-665" y="-715" width="180" height="30" as="geometry" />
        </mxCell>
        <mxCell id="Zt9l11_mfD3S958QhttF-21" value="&lt;p style=&quot;line-height: normal; margin-top: 0pt; margin-bottom: 0pt; direction: ltr; unicode-bidi: embed; font-size: 11px;&quot;&gt;&lt;font style=&quot;font-size: 11px;&quot;&gt;&lt;span style=&quot;font-family: Arial; font-variant-numeric: normal; font-variant-east-asian: normal; font-variant-alternates: normal; font-variant-position: normal;&quot;&gt;Reside en la evaluación de los sistemas y equipos informáticos para&lt;br&gt;validar ciertos&amp;nbsp;&lt;/span&gt;&lt;span style=&quot;font-family: Arial; background-color: initial;&quot;&gt;son empleados de manera adecuada y si los mismos cumplen con criterios&lt;/span&gt;&lt;/font&gt;&lt;/p&gt;&lt;p style=&quot;line-height: normal; margin-top: 0pt; margin-bottom: 0pt; direction: ltr; unicode-bidi: embed; font-size: 11px;&quot;&gt;&lt;span style=&quot;font-family: Arial; font-variant-numeric: normal; font-variant-east-asian: normal; font-variant-alternates: normal; font-variant-position: normal;&quot;&gt;&lt;font style=&quot;font-size: 11px;&quot;&gt;específicos de controles.&lt;/font&gt;&lt;/span&gt;&lt;/p&gt;" style="text;html=1;align=center;verticalAlign=middle;whiteSpace=wrap;rounded=0;fontStyle=0" vertex="1" parent="1">
          <mxGeometry x="-675" y="-625" width="195" height="30" as="geometry" />
        </mxCell>
        <mxCell id="Zt9l11_mfD3S958QhttF-23" value="" style="rounded=0;whiteSpace=wrap;html=1;" vertex="1" parent="1">
          <mxGeometry x="-830" y="-535" width="140" height="60" as="geometry" />
        </mxCell>
        <mxCell id="Zt9l11_mfD3S958QhttF-24" value="Otros propósitos&lt;div&gt;&lt;br&gt;&lt;/div&gt;" style="text;html=1;align=center;verticalAlign=middle;whiteSpace=wrap;rounded=0;fontStyle=1" vertex="1" parent="1">
          <mxGeometry x="-790" y="-515" width="60" height="30" as="geometry" />
        </mxCell>
        <mxCell id="Zt9l11_mfD3S958QhttF-25" value="&lt;div style=&quot;box-sizing: border-box; margin: 0px; padding: 0.4rem 1.6rem; color: rgb(45, 47, 49); font-family: &amp;quot;Udemy Sans&amp;quot;, &amp;quot;SF Pro Text&amp;quot;, -apple-system, BlinkMacSystemFont, Roboto, &amp;quot;Segoe UI&amp;quot;, Helvetica, Arial, sans-serif, &amp;quot;Apple Color Emoji&amp;quot;, &amp;quot;Segoe UI Emoji&amp;quot;, &amp;quot;Segoe UI Symbol&amp;quot;; font-size: 10px; font-style: normal; font-variant-ligatures: normal; font-variant-caps: normal; font-weight: 400; letter-spacing: normal; orphans: 2; text-indent: 0px; text-transform: none; widows: 2; word-spacing: 0px; -webkit-text-stroke-width: 0px; white-space: normal; text-decoration-thickness: initial; text-decoration-style: initial; text-decoration-color: initial;&quot; class=&quot;transcript--cue-container--Vuwj6&quot;&gt;&lt;p style=&quot;box-sizing: border-box; margin: 0px; padding: 0px; font-size: 10px; font-weight: 400; max-width: 60rem; outline: none;&quot; tabindex=&quot;-1&quot; role=&quot;button&quot; class=&quot;transcript--underline-cue---xybZ&quot; data-purpose=&quot;transcript-cue&quot;&gt;&lt;span style=&quot;box-sizing: border-box; margin: 0px; padding: 0px; font-size: 10px;&quot; class=&quot;&quot; data-purpose=&quot;cue-text&quot;&gt;De las revisiones que hace un auditor, se elabora un informe de auditoría que muestra la opinión sobre si los activos de información de informe poseen controles adecuados, si los mismos&amp;nbsp;&lt;/span&gt;&lt;span style=&quot;background-color: initial;&quot;&gt;funcionan o si fueron detectadas irregularidades&lt;/span&gt;&lt;/p&gt;&lt;/div&gt;" style="text;html=1;align=center;verticalAlign=middle;whiteSpace=wrap;rounded=0;fontSize=10;" vertex="1" parent="1">
          <mxGeometry x="-682.5" y="-445" width="225" height="70" as="geometry" />
        </mxCell>
        <mxCell id="Zt9l11_mfD3S958QhttF-27" value="Informe de Auditoria" style="text;html=1;align=center;verticalAlign=middle;whiteSpace=wrap;rounded=0;fontStyle=1" vertex="1" parent="1">
          <mxGeometry x="-420" y="-795" width="80" height="30" as="geometry" />
        </mxCell>
        <mxCell id="Zt9l11_mfD3S958QhttF-28" value="" style="rounded=0;whiteSpace=wrap;html=1;" vertex="1" parent="1">
          <mxGeometry x="-440" y="-735" width="160" height="60" as="geometry" />
        </mxCell>
        <mxCell id="Zt9l11_mfD3S958QhttF-34" value="Las evaluaciones no solamente requieren del estudio de los activos informáticos, físicos y lógicos de una compañía." style="text;align=center;verticalAlign=middle;whiteSpace=wrap;rounded=0;fontSize=10;" vertex="1" parent="1">
          <mxGeometry x="-440" y="-720" width="140" height="30" as="geometry" />
        </mxCell>
        <mxCell id="Zt9l11_mfD3S958QhttF-37" value="" style="rounded=0;whiteSpace=wrap;html=1;" vertex="1" parent="1">
          <mxGeometry x="-440" y="-645" width="160" height="60" as="geometry" />
        </mxCell>
        <mxCell id="Zt9l11_mfD3S958QhttF-38" value="Aunque los auditores informáticos dentro de su trabajo puedan identificar actividades no autorizadas y fraudes." style="text;align=center;verticalAlign=middle;rounded=0;fontSize=10;fontColor=default;whiteSpace=wrap;" vertex="1" parent="1">
          <mxGeometry x="-440" y="-630" width="160" height="30" as="geometry" />
        </mxCell>
        <mxCell id="Zt9l11_mfD3S958QhttF-39" value="" style="rounded=0;whiteSpace=wrap;html=1;" vertex="1" parent="1">
          <mxGeometry x="-440" y="-545" width="160" height="70" as="geometry" />
        </mxCell>
        <mxCell id="Zt9l11_mfD3S958QhttF-40" value="Su objetivo principal es velar por la efectividad de los controles de los sistemas y procesos para evitar&#xa;que estas cosas pasen." style="text;align=center;verticalAlign=middle;whiteSpace=wrap;rounded=0;fontSize=11;" vertex="1" parent="1">
          <mxGeometry x="-440" y="-525" width="160" height="30" as="geometry" />
        </mxCell>
      </root>
    </mxGraphModel>
  </diagram>
</mxfile>
